{
    "app-id" : "com.gitlab.newsflash.Devel",
    "runtime" : "org.gnome.Platform",
    "runtime-version" : "43",
    "sdk" : "org.gnome.Sdk",
    "sdk-extensions" : [
        "org.freedesktop.Sdk.Extension.rust-stable"
    ],
    "command" : "com.gitlab.newsflash",
    "tags" : [
        "nightly"
    ],
    "desktop-file-name-suffix" : " Devel",
    "finish-args" : [
        "--share=network",
        "--share=ipc",
        "--socket=x11",
        "--socket=wayland",
        "--socket=pulseaudio",
        "--device=dri",
        "--talk-name=org.freedesktop.Notifications"
    ],
    "build-options" : {
        "append-path" : "/usr/lib/sdk/rust-stable/bin",
        "build-args" : [
            "--share=network"
        ],
        "env" : {
            "CARGO_HOME" : "/run/build/newsflash/cargo",
            "RUSTFLAGS" : "--remap-path-prefix =../",
            "RUST_BACKTRACE" : "1",
            "PASSWORD_CRYPT_KEY" : "@PASSWORD_CRYPT_KEY@"
        }
    },
    "modules" : [
        {
            "name" : "newsflash",
            "buildsystem" : "meson",
            "config-opts": [
                "-Dprofile=development"
            ],
            "sources" : [
                {
                    "type" : "git",
                    "url" : "https://gitlab.com/news-flash/news_flash_gtk.git"
                }
            ]
        }
    ]
}


